Controller/Test Files/cc.vcd
$date
	Sat Mar 26 14:21:17 2022
$end
$version
	Icarus Verilog
$end
$timescale
	1ps
$end
$scope module ControllerController_tb $end
$var wire 1 ! pin8 $end
$var wire 1 " pin6 $end
$var wire 1 # pin5 $end
$var wire 1 $ pin3 $end
$var wire 1 % pin2 $end
$var wire 1 & pin1 $end
$var wire 1 ' pin0 $end
$var wire 8 ( buttons_det [7:0] $end
$var reg 32 ) CounterLimit [31:0] $end
$var reg 8 * buttons_in [7:0] $end
$var reg 1 + clr $end
$var reg 32 , counter [31:0] $end
$var reg 1 - en $end
$var reg 1 . frclk $end
$var reg 9 / simcounter [8:0] $end
$var reg 1 0 system_clock $end
$scope module ctrlr $end
$var wire 1 + clr $end
$var wire 1 - en $end
$var wire 1 . frclk $end
$var wire 1 1 nslct_en $end
$var wire 1 ' pin0 $end
$var wire 1 & pin1 $end
$var wire 1 % pin2 $end
$var wire 1 $ pin3 $end
$var wire 1 # pin5 $end
$var wire 1 " pin6 $end
$var wire 1 ! pin8 $end
$var wire 1 2 slct_en $end
$var wire 1 3 up $end
$var wire 1 4 start $end
$var wire 1 5 right $end
$var wire 1 6 left $end
$var wire 1 7 down $end
$var wire 1 8 c $end
$var wire 8 9 buttons [7:0] $end
$var wire 1 : b $end
$var wire 1 ; a $end
$var reg 1 < select $end
$scope module A $end
$var wire 1 . clk $end
$var wire 1 + clr $end
$var wire 1 # d $end
$var wire 1 1 en $end
$var reg 1 ; q $end
$upscope $end
$scope module B $end
$var wire 1 . clk $end
$var wire 1 + clr $end
$var wire 1 # d $end
$var wire 1 2 en $end
$var reg 1 : q $end
$upscope $end
$scope module C $end
$var wire 1 . clk $end
$var wire 1 + clr $end
$var wire 1 ! d $end
$var wire 1 2 en $end
$var reg 1 8 q $end
$upscope $end
$scope module DOWN $end
$var wire 1 . clk $end
$var wire 1 + clr $end
$var wire 1 & d $end
$var wire 1 - en $end
$var reg 1 7 q $end
$upscope $end
$scope module LEFT $end
$var wire 1 . clk $end
$var wire 1 + clr $end
$var wire 1 % d $end
$var wire 1 2 en $end
$var reg 1 6 q $end
$upscope $end
$scope module RIGHT $end
$var wire 1 . clk $end
$var wire 1 + clr $end
$var wire 1 $ d $end
$var wire 1 2 en $end
$var reg 1 5 q $end
$upscope $end
$scope module START $end
$var wire 1 . clk $end
$var wire 1 + clr $end
$var wire 1 ! d $end
$var wire 1 1 en $end
$var reg 1 4 q $end
$upscope $end
$scope module UP $end
$var wire 1 . clk $end
$var wire 1 + clr $end
$var wire 1 ' d $end
$var wire 1 - en $end
$var reg 1 3 q $end
$upscope $end
$upscope $end
$upscope $end
$enddefinitions $end
#0
$dumpvars
1<
0;
0:
b11111111 9
08
07
06
05
04
03
12
01
00
b0 /
0.
1-
b0 ,
0+
b11111111 *
b1 )
b11111111 (
1'
1&
1%
1$
1#
1"
1!
$end
#10000
b1 ,
10
#20000
00
#30000
b10010000 (
b10010000 9
13
17
16
15
1:
18
11
02
0$
0%
0"
0<
1.
b0 ,
10
#35000
0'
b11111110 *
b1 /
#40000
00
#50000
b1 ,
10
#60000
00
#70000
0.
b0 ,
10
#80000
00
#90000
b1 ,
10
#100000
00
#110000
b1 (
b1 9
14
1;
03
01
12
1$
1%
1"
1<
1.
b0 ,
10
#115000
b10 /
#120000
00
#130000
b1 ,
10
#140000
00
#150000
0.
b0 ,
10
#160000
00
#170000
b1 ,
10
#180000
00
#190000
11
02
0$
0%
0"
0<
1.
b0 ,
10
#195000
1'
0&
b11111101 *
b11 /
#200000
00
#210000
b1 ,
10
#220000
00
#230000
0.
b0 ,
10
#240000
00
#250000
b1 ,
10
#260000
00
#270000
b10 (
b10 9
07
13
01
12
1$
1%
1"
1<
1.
b0 ,
10
#275000
b100 /
#280000
00
#290000
b1 ,
10
#300000
00
#310000
0.
b0 ,
10
#320000
00
#330000
b1 ,
10
#340000
00
#350000
11
02
0$
0%
0"
0<
1.
b0 ,
10
#355000
0'
b11111100 *
b101 /
#360000
00
#370000
b1 ,
10
#380000
00
#390000
0.
b0 ,
10
#400000
00
#410000
b1 ,
10
#420000
00
#430000
b11 (
b11 9
03
01
12
1$
1%
1"
1<
1.
b0 ,
10
#435000
b110 /
#440000
00
#450000
b1 ,
10
#460000
00
#470000
0.
b0 ,
10
#480000
00
#490000
b1 ,
10
#500000
00
#510000
11
02
0$
0%
0"
0<
1.
b0 ,
10
#515000
1'
1&
b11111011 *
b111 /
#520000
00
#530000
b1 ,
10
#540000
00
#550000
0.
b0 ,
10
#560000
00
#570000
b1 ,
10
#580000
00
#590000
b0 (
b0 9
17
13
01
12
1$
1"
1<
1.
b0 ,
10
#595000
b1000 /
#600000
00
#610000
b1 ,
10
#620000
00
#630000
0.
b0 ,
10
#640000
00
#650000
b1 ,
10
#660000
00
#670000
b100 (
b100 9
06
11
02
0$
0"
0<
1.
b0 ,
10
#675000
0'
b11111010 *
b1001 /
#680000
00
#690000
b1 ,
10
#700000
00
#710000
0.
b0 ,
10
#720000
00
#730000
b1 ,
10
#740000
00
#750000
b101 (
b101 9
03
01
12
1$
1"
1<
1.
b0 ,
10
#755000
b1010 /
#760000
00
#770000
b1 ,
10
#780000
00
#790000
0.
b0 ,
10
#800000
00
#810000
b1 ,
10
#820000
00
#830000
11
02
0$
0"
0<
1.
b0 ,
10
#835000
1'
0&
b11111001 *
b1011 /
#840000
00
#850000
b1 ,
10
#860000
00
#870000
0.
b0 ,
10
#880000
00
#890000
b1 ,
10
#900000
00
#910000
b110 (
b110 9
07
13
01
12
1$
1"
1<
1.
b0 ,
10
#915000
b1100 /
#920000
00
#930000
b1 ,
10
#940000
00
#950000
0.
b0 ,
10
#960000
00
#970000
b1 ,
10
#980000
00
#990000
11
02
0$
0"
0<
1.
b0 ,
10
#995000
0'
b11111000 *
b1101 /
#1000000
00
#1010000
b1 ,
10
#1020000
00
#1030000
0.
b0 ,
10
#1040000
00
#1050000
b1 ,
10
#1060000
00
#1070000
b111 (
b111 9
03
01
12
1$
1"
1<
1.
b0 ,
10
#1075000
b1110 /
#1080000
00
#1090000
b1 ,
10
#1100000
00
#1110000
0.
b0 ,
10
#1120000
00
#1130000
b1 ,
10
#1140000
00
#1150000
11
02
0$
0"
0<
1.
b0 ,
10
#1155000
1'
1&
b11110111 *
b1111 /
#1160000
00
#1170000
b1 ,
10
#1180000
00
#1190000
0.
b0 ,
10
#1200000
00
#1210000
b1 ,
10
#1220000
00
#1230000
b100 (
b100 9
17
13
01
12
1%
1"
1<
1.
b0 ,
10
#1235000
b10000 /
#1240000
00
#1250000
b1 ,
10
#1260000
00
#1270000
0.
b0 ,
10
#1280000
00
#1290000
b1 ,
10
#1300000
00
#1310000
b1000 (
b1000 9
16
05
11
02
0%
0"
0<
1.
b0 ,
10
#1315000
0'
b11110110 *
b10001 /
#1320000
00
#1330000
b1 ,
10
#1340000
00
#1350000
0.
b0 ,
10
#1360000
00
#1370000
b1 ,
10
#1380000
00
#1390000
b1001 (
b1001 9
03
01
12
1%
1"
1<
1.
b0 ,
10
#1395000
b10010 /
#1400000
00
#1410000
b1 ,
10
#1420000
00
#1430000
0.
b0 ,
10
#1440000
00
#1450000
b1 ,
10
#1460000
00
#1470000
11
02
0%
0"
0<
1.
b0 ,
10
#1475000
1'
0&
b11110101 *
b10011 /
#1480000
00
#1490000
b1 ,
10
#1500000
00
#1510000
0.
b0 ,
10
#1520000
00
#1530000
b1 ,
10
#1540000
00
#1550000
b1010 (
b1010 9
07
13
01
12
1%
1"
1<
1.
b0 ,
10
#1555000
b10100 /
#1560000
00
#1570000
b1 ,
10
#1580000
00
#1590000
0.
b0 ,
10
#1600000
00
#1610000
b1 ,
10
#1620000
00
#1630000
11
02
0%
0"
0<
1.
b0 ,
10
#1635000
0'
b11110100 *
b10101 /
#1640000
00
#1650000
b1 ,
10
#1660000
00
#1670000
0.
b0 ,
10
#1680000
00
#1690000
b1 ,
10
#1700000
00
#1710000
b1011 (
b1011 9
03
01
12
1%
1"
1<
1.
b0 ,
10
#1715000
b10110 /
#1720000
00
#1730000
b1 ,
10
#1740000
00
#1750000
0.
b0 ,
10
#1760000
00
#1770000
b1 ,
10
#1780000
00
#1790000
11
02
0%
0"
0<
1.
b0 ,
10
#1795000
1'
1&
b11110011 *
b10111 /
#1800000
00
#1810000
b1 ,
10
#1820000
00
#1830000
0.
b0 ,
10
#1840000
00
#1850000
b1 ,
10
#1860000
00
#1870000
b1000 (
b1000 9
17
13
01
12
1"
1<
1.
b0 ,
10
#1875000
b11000 /
#1880000
00
#1890000
b1 ,
10
#1900000
00
#1910000
0.
b0 ,
10
#1920000
00
#1930000
b1 ,
10
#1940000
00
#1950000
b1100 (
b1100 9
06
11
02
0"
0<
1.
b0 ,
10
#1955000
0'
b11110010 *
b11001 /
#1960000
00
#1970000
b1 ,
10
#1980000
00
#1990000
0.
b0 ,
10
#2000000
00
#2010000
b1 ,
10
#2020000
00
#2030000
b1101 (
b1101 9
03
01
12
1"
1<
1.
b0 ,
10
#2035000
b11010 /
#2040000
00
#2050000
b1 ,
10
#2060000
00
#2070000
0.
b0 ,
10
#2080000
00
#2090000
b1 ,
10
#2100000
00
#2110000
11
02
0"
0<
1.
b0 ,
10
#2115000
1'
0&
b11110001 *
b11011 /
#2120000
00
#2130000
b1 ,
10
#2140000
00
#2150000
0.
b0 ,
10
#2160000
00
#2170000
b1 ,
10
#2180000
00
#2190000
b1110 (
b1110 9
07
13
01
12
1"
1<
1.
b0 ,
10
#2195000
b11100 /
#2200000
00
#2210000
b1 ,
10
#2220000
00
#2230000
0.
b0 ,
10
#2240000
00
#2250000
b1 ,
10
#2260000
00
#2270000
11
02
0"
0<
1.
b0 ,
10
#2275000
0'
b11110000 *
b11101 /
#2280000
00
#2290000
b1 ,
10
#2300000
00
#2310000
0.
b0 ,
10
#2320000
00
#2330000
b1 ,
10
#2340000
00
#2350000
b1111 (
b1111 9
03
01
12
1"
1<
1.
b0 ,
10
#2355000
b11110 /
#2360000
00
#2370000
b1 ,
10
#2380000
00
#2390000
0.
b0 ,
10
#2400000
00
#2410000
b1 ,
10
#2420000
00
#2430000
11
02
0"
0<
1.
b0 ,
10
#2435000
0#
1'
1&
b11101111 *
b11111 /
#2440000
00
#2450000
b1 ,
10
#2460000
00
#2470000
0.
b0 ,
10
#2480000
00
#2490000
b1 ,
10
#2500000
00
#2510000
b11100 (
b11100 9
0;
17
13
01
12
1#
1$
1%
1"
1<
1.
b0 ,
10
#2515000
b100000 /
#2520000
00
#2530000
b1 ,
10
#2540000
00
#2550000
0.
b0 ,
10
#2560000
00
#2570000
b1 ,
10
#2580000
00
#2590000
b10000 (
b10000 9
16
15
11
02
0#
0$
0%
0"
0<
1.
b0 ,
10
#2595000
0'
b11101110 *
b100001 /
#2600000
00
#2610000
b1 ,
10
#2620000
00
#2630000
0.
b0 ,
10
#2640000
00
#2650000
b1 ,
10
#2660000
00
#2670000
b10001 (
b10001 9
03
01
12
1#
1$
1%
1"
1<
1.
b0 ,
10
#2675000
b100010 /
#2680000
00
#2690000
b1 ,
10
#2700000
00
#2710000
0.
b0 ,
10
#2720000
00
#2730000
b1 ,
10
#2740000
00
#2750000
11
02
0#
0$
0%
0"
0<
1.
b0 ,
10
#2755000
1'
0&
b11101101 *
b100011 /
#2760000
00
#2770000
b1 ,
10
#2780000
00
#2790000
0.
b0 ,
10
#2800000
00
#2810000
b1 ,
10
#2820000
00
#2830000
b10010 (
b10010 9
07
13
01
12
1#
1$
1%
1"
1<
1.
b0 ,
10
#2835000
b100100 /
#2840000
00
#2850000
b1 ,
10
#2860000
00
#2870000
0.
b0 ,
10
#2880000
00
#2890000
b1 ,
10
#2900000
00
#2910000
11
02
0#
0$
0%
0"
0<
1.
b0 ,
10
#2915000
0'
b11101100 *
b100101 /
#2920000
00
#2930000
b1 ,
10
#2940000
00
#2950000
0.
b0 ,
10
#2960000
00
#2970000
b1 ,
10
#2980000
00
#2990000
b10011 (
b10011 9
03
01
12
1#
1$
1%
1"
1<
1.
b0 ,
10
#2995000
b100110 /
#3000000
00
#3010000
b1 ,
10
#3020000
00
#3030000
0.
b0 ,
10
#3040000
00
#3050000
b1 ,
10
#3060000
00
#3070000
11
02
0#
0$
0%
0"
0<
1.
b0 ,
10
#3075000
1'
1&
b11101011 *
b100111 /
#3080000
00
#3090000
b1 ,
10
#3100000
00
#3110000
0.
b0 ,
10
#3120000
00
#3130000
b1 ,
10
#3140000
00
#3150000
b10000 (
b10000 9
17
13
01
12
1#
1$
1"
1<
1.
b0 ,
10
#3155000
b101000 /
#3160000
00
#3170000
b1 ,
10
#3180000
00
#3190000
0.
b0 ,
10
#3200000
00
#3210000
b1 ,
10
#3220000
00
#3230000
b10100 (
b10100 9
06
11
02
0#
0$
0"
0<
1.
b0 ,
10
#3235000
0'
b11101010 *
b101001 /
#3240000
00
#3250000
b1 ,
10
#3260000
00
#3270000
0.
b0 ,
10
#3280000
00
#3290000
b1 ,
10
#3300000
00
#3310000
b10101 (
b10101 9
03
01
12
1#
1$
1"
1<
1.
b0 ,
10
#3315000
b101010 /
#3320000
00
#3330000
b1 ,
10
#3340000
00
#3350000
0.
b0 ,
10
#3360000
00
#3370000
b1 ,
10
#3380000
00
#3390000
11
02
0#
0$
0"
0<
1.
b0 ,
10
#3395000
1'
0&
b11101001 *
b101011 /
#3400000
00
#3410000
b1 ,
10
#3420000
00
#3430000
0.
b0 ,
10
#3440000
00
#3450000
b1 ,
10
#3460000
00
#3470000
b10110 (
b10110 9
07
13
01
12
1#
1$
1"
1<
1.
b0 ,
10
#3475000
b101100 /
#3480000
00
#3490000
b1 ,
10
#3500000
00
#3510000
0.
b0 ,
10
#3520000
00
#3530000
b1 ,
10
#3540000
00
#3550000
11
02
0#
0$
0"
0<
1.
b0 ,
10
#3555000
0'
b11101000 *
b101101 /
#3560000
00
#3570000
b1 ,
10
#3580000
00
#3590000
0.
b0 ,
10
#3600000
00
#3610000
b1 ,
10
#3620000
00
#3630000
b10111 (
b10111 9
03
01
12
1#
1$
1"
1<
1.
b0 ,
10
#3635000
b101110 /
#3640000
00
#3650000
b1 ,
10
#3660000
00
#3670000
0.
b0 ,
10
#3680000
00
#3690000
b1 ,
10
#3700000
00
#3710000
11
02
0#
0$
0"
0<
1.
b0 ,
10
#3715000
1'
1&
b11100111 *
b101111 /
#3720000
00
#3730000
b1 ,
10
#3740000
00
#3750000
0.
b0 ,
10
#3760000
00
#3770000
b1 ,
10
#3780000
00
#3790000
b10100 (
b10100 9
17
13
01
12
1#
1%
1"
1<
1.
b0 ,
10
#3795000
b110000 /
#3800000
00
#3810000
b1 ,
10
#3820000
00
#3830000
0.
b0 ,
10
#3840000
00
#3850000
b1 ,
10
#3860000
00
#3870000
b11000 (
b11000 9
16
05
11
02
0#
0%
0"
0<
1.
b0 ,
10
#3875000
0'
b11100110 *
b110001 /
#3880000
00
#3890000
b1 ,
10
#3900000
00
#3910000
0.
b0 ,
10
#3920000
00
#3930000
b1 ,
10
#3940000
00
#3950000
b11001 (
b11001 9
03
01
12
1#
1%
1"
1<
1.
b0 ,
10
#3955000
b110010 /
#3960000
00
#3970000
b1 ,
10
#3980000
00
#3990000
0.
b0 ,
10
#4000000
00
#4010000
b1 ,
10
#4020000
00
#4030000
11
02
0#
0%
0"
0<
1.
b0 ,
10
#4035000
1'
0&
b11100101 *
b110011 /
#4040000
00
#4050000
b1 ,
10
#4060000
00
#4070000
0.
b0 ,
10
#4080000
00
#4090000
b1 ,
10
#4100000
00
#4110000
b11010 (
b11010 9
07
13
01
12
1#
1%
1"
1<
1.
b0 ,
10
#4115000
b110100 /
#4120000
00
#4130000
b1 ,
10
#4140000
00
#4150000
0.
b0 ,
10
#4160000
00
#4170000
b1 ,
10
#4180000
00
#4190000
11
02
0#
0%
0"
0<
1.
b0 ,
10
#4195000
0'
b11100100 *
b110101 /
#4200000
00
#4210000
b1 ,
10
#4220000
00
#4230000
0.
b0 ,
10
#4240000
00
#4250000
b1 ,
10
#4260000
00
#4270000
b11011 (
b11011 9
03
01
12
1#
1%
1"
1<
1.
b0 ,
10
#4275000
b110110 /
#4280000
00
#4290000
b1 ,
10
#4300000
00
#4310000
0.
b0 ,
10
#4320000
00
#4330000
b1 ,
10
#4340000
00
#4350000
11
02
0#
0%
0"
0<
1.
b0 ,
10
#4355000
1'
1&
b11100011 *
b110111 /
#4360000
00
#4370000
b1 ,
10
#4380000
00
#4390000
0.
b0 ,
10
#4400000
00
#4410000
b1 ,
10
#4420000
00
#4430000
b11000 (
b11000 9
17
13
01
12
1#
1"
1<
1.
b0 ,
10
#4435000
b111000 /
#4440000
00
#4450000
b1 ,
10
#4460000
00
#4470000
0.
b0 ,
10
#4480000
00
#4490000
b1 ,
10
#4500000
00
#4510000
b11100 (
b11100 9
06
11
02
0#
0"
0<
1.
b0 ,
10
#4515000
0'
b11100010 *
b111001 /
#4520000
00
#4530000
b1 ,
10
#4540000
00
#4550000
0.
b0 ,
10
#4560000
00
#4570000
b1 ,
10
#4580000
00
#4590000
b11101 (
b11101 9
03
01
12
1#
1"
1<
1.
b0 ,
10
#4595000
b111010 /
#4600000
00
#4610000
b1 ,
10
#4620000
00
#4630000
0.
b0 ,
10
#4640000
00
#4650000
b1 ,
10
#4660000
00
#4670000
11
02
0#
0"
0<
1.
b0 ,
10
#4675000
1'
0&
b11100001 *
b111011 /
#4680000
00
#4690000
b1 ,
10
#4700000
00
#4710000
0.
b0 ,
10
#4720000
00
#4730000
b1 ,
10
#4740000
00
#4750000
b11110 (
b11110 9
07
13
01
12
1#
1"
1<
1.
b0 ,
10
#4755000
b111100 /
#4760000
00
#4770000
b1 ,
10
#4780000
00
#4790000
0.
b0 ,
10
#4800000
00
#4810000
b1 ,
10
#4820000
00
#4830000
11
02
0#
0"
0<
1.
b0 ,
10
#4835000
0'
b11100000 *
b111101 /
#4840000
00
#4850000
b1 ,
10
#4860000
00
#4870000
0.
b0 ,
10
#4880000
00
#4890000
b1 ,
10
#4900000
00
#4910000
b11111 (
b11111 9
03
01
12
1#
1"
1<
1.
b0 ,
10
#4915000
b111110 /
#4920000
00
#4930000
b1 ,
10
#4940000
00
#4950000
0.
b0 ,
10
#4960000
00
#4970000
b1 ,
10
#4980000
00
#4990000
11
02
0#
0"
0<
1.
b0 ,
10
#4995000
1#
1'
1&
b11011111 *
b111111 /
#5000000
00
#5010000
b1 ,
10
#5020000
00
#5030000
0.
b0 ,
10
#5040000
00
#5050000
b1 ,
10
#5060000
00
#5070000
b1100 (
b1100 9
1;
17
13
01
12
0#
1$
1%
1"
1<
1.
b0 ,
10
#5075000
b1000000 /
#5080000
00
#5090000
b1 ,
10
#5100000
00
#5110000
0.
b0 ,
10
#5120000
00
#5130000
b1 ,
10
#5140000
00
#5150000
b100000 (
b100000 9
16
15
0:
11
02
1#
0$
0%
0"
0<
1.
b0 ,
10
#5155000
0'
b11011110 *
b1000001 /
#5160000
00
#5170000
b1 ,
10
#5180000
00
#5190000
0.
b0 ,
10
#5200000
00
#5210000
b1 ,
10
#5220000
00
#5230000
b100001 (
b100001 9
03
01
12
0#
1$
1%
1"
1<
1.
b0 ,
10
#5235000
b1000010 /
#5240000
00
#5250000
b1 ,
10
#5260000
00
#5270000
0.
b0 ,
10
#5280000
00
#5290000
b1 ,
10
#5300000
00
#5310000
11
02
1#
0$
0%
0"
0<
1.
b0 ,
10
#5315000
1'
0&
b11011101 *
b1000011 /
#5320000
00
#5330000
b1 ,
10
#5340000
00
#5350000
0.
b0 ,
10
#5360000
00
#5370000
b1 ,
10
#5380000
00
#5390000
b100010 (
b100010 9
07
13
01
12
0#
1$
1%
1"
1<
1.
b0 ,
10
#5395000
b1000100 /
#5400000
00
#5410000
b1 ,
10
#5420000
00
#5430000
0.
b0 ,
10
#5440000
00
#5450000
b1 ,
10
#5460000
00
#5470000
11
02
1#
0$
0%
0"
0<
1.
b0 ,
10
#5475000
0'
b11011100 *
b1000101 /
#5480000
00
#5490000
b1 ,
10
#5500000
00
#5510000
0.
b0 ,
10
#5520000
00
#5530000
b1 ,
10
#5540000
00
#5550000
b100011 (
b100011 9
03
01
12
0#
1$
1%
1"
1<
1.
b0 ,
10
#5555000
b1000110 /
#5560000
00
#5570000
b1 ,
10
#5580000
00
#5590000
0.
b0 ,
10
#5600000
00
#5610000
b1 ,
10
#5620000
00
#5630000
11
02
1#
0$
0%
0"
0<
1.
b0 ,
10
#5635000
1'
1&
b11011011 *
b1000111 /
#5640000
00
#5650000
b1 ,
10
#5660000
00
#5670000
0.
b0 ,
10
#5680000
00
#5690000
b1 ,
10
#5700000
00
#5710000
b100000 (
b100000 9
17
13
01
12
0#
1$
1"
1<
1.
b0 ,
10
#5715000
b1001000 /
#5720000
00
#5730000
b1 ,
10
#5740000
00
#5750000
0.
b0 ,
10
#5760000
00
#5770000
b1 ,
10
#5780000
00
#5790000
b100100 (
b100100 9
06
11
02
1#
0$
0"
0<
1.
b0 ,
10
#5795000
0'
b11011010 *
b1001001 /
#5800000
00
#5810000
b1 ,
10
#5820000
00
#5830000
0.
b0 ,
10
#5840000
00
#5850000
b1 ,
10
#5860000
00
#5870000
b100101 (
b100101 9
03
01
12
0#
1$
1"
1<
1.
b0 ,
10
#5875000
b1001010 /
#5880000
00
#5890000
b1 ,
10
#5900000
00
#5910000
0.
b0 ,
10
#5920000
00
#5930000
b1 ,
10
#5940000
00
#5950000
11
02
1#
0$
0"
0<
1.
b0 ,
10
#5955000
1'
0&
b11011001 *
b1001011 /
#5960000
00
#5970000
b1 ,
10
#5980000
00
#5990000
0.
b0 ,
10
#6000000
00
#6010000
b1 ,
10
#6020000
00
#6030000
b100110 (
b100110 9
07
13
01
12
0#
1$
1"
1<
1.
b0 ,
10
#6035000
b1001100 /
#6040000
00
#6050000
b1 ,
10
#6060000
00
#6070000
0.
b0 ,
10
#6080000
00
#6090000
b1 ,
10
#6100000
00
#6110000
11
02
1#
0$
0"
0<
1.
b0 ,
10
#6115000
0'
b11011000 *
b1001101 /
#6120000
00
#6130000
b1 ,
10
#6140000
00
#6150000
0.
b0 ,
10
#6160000
00
#6170000
b1 ,
10
#6180000
00
#6190000
b100111 (
b100111 9
03
01
12
0#
1$
1"
1<
1.
b0 ,
10
#6195000
b1001110 /
#6200000
00
#6210000
b1 ,
10
#6220000
00
#6230000
0.
b0 ,
10
#6240000
00
#6250000
b1 ,
10
#6260000
00
#6270000
11
02
1#
0$
0"
0<
1.
b0 ,
10
#6275000
1'
1&
b11010111 *
b1001111 /
#6280000
00
#6290000
b1 ,
10
#6300000
00
#6310000
0.
b0 ,
10
#6320000
00
#6330000
b1 ,
10
#6340000
00
#6350000
b100100 (
b100100 9
17
13
01
12
0#
1%
1"
1<
1.
b0 ,
10
#6355000
b1010000 /
#6360000
00
#6370000
b1 ,
10
#6380000
00
#6390000
0.
b0 ,
10
#6400000
00
#6410000
b1 ,
10
#6420000
00
#6430000
b101000 (
b101000 9
16
05
11
02
1#
0%
0"
0<
1.
b0 ,
10
#6435000
0'
b11010110 *
b1010001 /
#6440000
00
#6450000
b1 ,
10
#6460000
00
#6470000
0.
b0 ,
10
#6480000
00
#6490000
b1 ,
10
#6500000
00
#6510000
b101001 (
b101001 9
03
01
12
0#
1%
1"
1<
1.
b0 ,
10
#6515000
b1010010 /
#6520000
00
#6530000
b1 ,
10
#6540000
00
#6550000
0.
b0 ,
10
#6560000
00
#6570000
b1 ,
10
#6580000
00
#6590000
11
02
1#
0%
0"
0<
1.
b0 ,
10
#6595000
1'
0&
b11010101 *
b1010011 /
#6600000
00
#6610000
b1 ,
10
#6620000
00
#6630000
0.
b0 ,
10
#6640000
00
#6650000
b1 ,
10
#6660000
00
#6670000
b101010 (
b101010 9
07
13
01
12
0#
1%
1"
1<
1.
b0 ,
10
#6675000
b1010100 /
#6680000
00
#6690000
b1 ,
10
#6700000
00
#6710000
0.
b0 ,
10
#6720000
00
#6730000
b1 ,
10
#6740000
00
#6750000
11
02
1#
0%
0"
0<
1.
b0 ,
10
#6755000
0'
b11010100 *
b1010101 /
#6760000
00
#6770000
b1 ,
10
#6780000
00
#6790000
0.
b0 ,
10
#6800000
00
#6810000
b1 ,
10
#6820000
00
#6830000
b101011 (
b101011 9
03
01
12
0#
1%
1"
1<
1.
b0 ,
10
#6835000
b1010110 /
#6840000
00
#6850000
b1 ,
10
#6860000
00
#6870000
0.
b0 ,
10
#6880000
00
#6890000
b1 ,
10
#6900000
00
#6910000
11
02
1#
0%
0"
0<
1.
b0 ,
10
#6915000
1'
1&
b11010011 *
b1010111 /
#6920000
00
#6930000
b1 ,
10
#6940000
00
#6950000
0.
b0 ,
10
#6960000
00
#6970000
b1 ,
10
#6980000
00
#6990000
b101000 (
b101000 9
17
13
01
12
0#
1"
1<
1.
b0 ,
10
#6995000
b1011000 /
#7000000
00
#7010000
b1 ,
10
#7020000
00
#7030000
0.
b0 ,
10
#7040000
00
#7050000
b1 ,
10
#7060000
00
#7070000
b101100 (
b101100 9
06
11
02
1#
0"
0<
1.
b0 ,
10
#7075000
0'
b11010010 *
b1011001 /
#7080000
00
#7090000
b1 ,
10
#7100000
00
#7110000
0.
b0 ,
10
#7120000
00
#7130000
b1 ,
10
#7140000
00
#7150000
b101101 (
b101101 9
03
01
12
0#
1"
1<
1.
b0 ,
10
#7155000
b1011010 /
#7160000
00
#7170000
b1 ,
10
#7180000
00
#7190000
0.
b0 ,
10
#7200000
00
#7210000
b1 ,
10
#7220000
00
#7230000
11
02
1#
0"
0<
1.
b0 ,
10
#7235000
1'
0&
b11010001 *
b1011011 /
#7240000
00
#7250000
b1 ,
10
#7260000
00
#7270000
0.
b0 ,
10
#7280000
00
#7290000
b1 ,
10
#7300000
00
#7310000
b101110 (
b101110 9
07
13
01
12
0#
1"
1<
1.
b0 ,
10
#7315000
b1011100 /
#7320000
00
#7330000
b1 ,
10
#7340000
00
#7350000
0.
b0 ,
10
#7360000
00
#7370000
b1 ,
10
#7380000
00
#7390000
11
02
1#
0"
0<
1.
b0 ,
10
#7395000
0'
b11010000 *
b1011101 /
#7400000
00
#7410000
b1 ,
10
#7420000
00
#7430000
0.
b0 ,
10
#7440000
00
#7450000
b1 ,
10
#7460000
00
#7470000
b101111 (
b101111 9
03
01
12
0#
1"
1<
1.
b0 ,
10
#7475000
b1011110 /
#7480000
00
#7490000
b1 ,
10
#7500000
00
#7510000
0.
b0 ,
10
#7520000
00
#7530000
b1 ,
10
#7540000
00
#7550000
11
02
1#
0"
0<
1.
b0 ,
10
#7555000
0#
1'
1&
b11001111 *
b1011111 /
#7560000
00
#7570000
b1 ,
10
#7580000
00
#7590000
0.
b0 ,
10
#7600000
00
#7610000
b1 ,
10
#7620000
00
#7630000
b111100 (
b111100 9
0;
17
13
01
12
1$
1%
1"
1<
1.
b0 ,
10
#7635000
b1100000 /
#7640000
00
#7650000
b1 ,
10
#7660000
00
#7670000
0.
b0 ,
10
#7680000
00
#7690000
b1 ,
10
#7700000
00
#7710000
b110000 (
b110000 9
16
15
11
02
0$
0%
0"
0<
1.
b0 ,
10
#7715000
0'
b11001110 *
b1100001 /
#7720000
00
#7730000
b1 ,
10
#7740000
00
#7750000
0.
b0 ,
10
#7760000
00
#7770000
b1 ,
10
#7780000
00
#7790000
b110001 (
b110001 9
03
01
12
1$
1%
1"
1<
1.
b0 ,
10
#7795000
b1100010 /
#7800000
00
#7810000
b1 ,
10
#7820000
00
#7830000
0.
b0 ,
10
#7840000
00
#7850000
b1 ,
10
#7860000
00
#7870000
11
02
0$
0%
0"
0<
1.
b0 ,
10
#7875000
1'
0&
b11001101 *
b1100011 /
#7880000
00
#7890000
b1 ,
10
#7900000
00
#7910000
0.
b0 ,
10
#7920000
00
#7930000
b1 ,
10
#7940000
00
#7950000
b110010 (
b110010 9
07
13
01
12
1$
1%
1"
1<
1.
b0 ,
10
#7955000
b1100100 /
#7960000
00
#7970000
b1 ,
10
#7980000
00
#7990000
0.
b0 ,
10
#8000000
00
#8010000
b1 ,
10
#8020000
00
#8030000
11
02
0$
0%
0"
0<
1.
b0 ,
10
#8035000
0'
b11001100 *
b1100101 /
#8040000
00
#8050000
b1 ,
10
#8060000
00
#8070000
0.
b0 ,
10
#8080000
00
#8090000
b1 ,
10
#8100000
00
#8110000
b110011 (
b110011 9
03
01
12
1$
1%
1"
1<
1.
b0 ,
10
#8115000
b1100110 /
#8120000
00
#8130000
b1 ,
10
#8140000
00
#8150000
0.
b0 ,
10
#8160000
00
#8170000
b1 ,
10
#8180000
00
#8190000
11
02
0$
0%
0"
0<
1.
b0 ,
10
#8195000
1'
1&
b11001011 *
b1100111 /
#8200000
00
#8210000
b1 ,
10
#8220000
00
#8230000
0.
b0 ,
10
#8240000
00
#8250000
b1 ,
10
#8260000
00
#8270000
b110000 (
b110000 9
17
13
01
12
1$
1"
1<
1.
b0 ,
10
#8275000
b1101000 /
#8280000
00
#8290000
b1 ,
10
#8300000
00
#8310000
0.
b0 ,
10
#8320000
00
#8330000
b1 ,
10
#8340000
00
#8350000
b110100 (
b110100 9
06
11
02
0$
0"
0<
1.
b0 ,
10
#8355000
0'
b11001010 *
b1101001 /
#8360000
00
#8370000
b1 ,
10
#8380000
00
#8390000
0.
b0 ,
10
#8400000
00
#8410000
b1 ,
10
#8420000
00
#8430000
b110101 (
b110101 9
03
01
12
1$
1"
1<
1.
b0 ,
10
#8435000
b1101010 /
#8440000
00
#8450000
b1 ,
10
#8460000
00
#8470000
0.
b0 ,
10
#8480000
00
#8490000
b1 ,
10
#8500000
00
#8510000
11
02
0$
0"
0<
1.
b0 ,
10
#8515000
1'
0&
b11001001 *
b1101011 /
#8520000
00
#8530000
b1 ,
10
#8540000
00
#8550000
0.
b0 ,
10
